<?xml version="1.0" encoding="utf-8"?>
<preferences>
  <section id="ui">
    <value id="name" xml:space="preserve">Adblock Plus</value>
  </section>
  <section id="wuid-25097340-c2bd-11e2-89a8-f0cda852c1ec">
    <value id="network_access" xml:space="preserve">24</value>
  </section>
  <section id="user">
    <value id="GadgetRunOnSecureConn" xml:space="preserve">yes</value>
    <value id="GadgetEnabledOnStartup" xml:space="preserve">yes</value>
  </section>
</preferences>
