<?xml version="1.0" encoding="utf-8"?>
<!-- Generator: Adobe Illustrator 15.0.2, SVG Export Plug-In . SVG Version: 6.00 Build 0)  -->
<!DOCTYPE svg PUBLIC "-//W3C//DTD SVG 1.1//EN" "http://www.w3.org/Graphics/SVG/1.1/DTD/svg11.dtd">
<svg version="1.1" id="レイヤー_1" xmlns="http://www.w3.org/2000/svg" xmlns:xlink="http://www.w3.org/1999/xlink" x="0px"
	 y="0px" width="612px" height="162.688px" viewBox="0 0 612 162.688" enable-background="new 0 0 612 162.688"
	 xml:space="preserve">
<g>
	<rect y="26.688" fill="#8FC31F" width="10" height="135"/>
	<rect x="35" y="61.688" fill="#8FC31F" width="10" height="100"/>
	<polygon fill="#8FC31F" points="67,76.688 67,161.688 77,161.688 77,86.688 117,86.688 117,161.688 127,161.688 127,76.688 	"/>
	<polygon fill="#8FC31F" points="146,161.688 146,76.688 156,76.688 156,151.688 196,151.688 196,76.688 206,76.688 206,161.688 	
		"/>
	<g>
		<path fill="#8FC31F" d="M298.167,162.688c0,0,44.333-2.792,61.958-25.042c20.849-26.319-3.953-49.314-3.953-49.314
			c10.453-4.061,32.828-15.186,29.455-41.485c-2.409-18.778-10.752-28.951-37.127-39.451l-0.75-7.125
			c-1.372-0.526-4.25-0.125-4.25-0.125C350.5,57.521,330.5,115.396,298.167,162.688z"/>
		<path fill="#8FC31F" stroke="#FFFFFF" stroke-width="3" stroke-miterlimit="10" d="M357.334,112.021
			c7,31.5-26.834,35.5-34.668,28.5"/>
		<path fill="#8FC31F" stroke="#FFFFFF" stroke-width="3" stroke-miterlimit="10" d="M378.334,44.021c4,27.5-20.5,33-30,29.667"/>
		
			<line fill="#8FC31F" stroke="#FFFFFF" stroke-width="3" stroke-miterlimit="10" x1="360.875" y1="39.271" x2="362.75" y2="41.271"/>
		
			<line fill="#8FC31F" stroke="#FFFFFF" stroke-width="3" stroke-miterlimit="10" x1="348.875" y1="48.271" x2="350.75" y2="50.271"/>
		
			<line fill="#8FC31F" stroke="#FFFFFF" stroke-width="3" stroke-miterlimit="10" x1="338.875" y1="109.271" x2="340.75" y2="111.271"/>
		
			<line fill="#8FC31F" stroke="#FFFFFF" stroke-width="3" stroke-miterlimit="10" x1="326.875" y1="118.271" x2="328.75" y2="120.271"/>
	</g>
	<g>
		<polygon fill="#8FC31F" points="230,161.688 220,161.688 269.075,76.688 279.075,76.688 		"/>
		<polygon fill="#8FC31F" points="269.075,161.688 279.075,161.688 230,76.688 220,76.688 		"/>
	</g>
	<path fill="#8FC31F" d="M457,122.688v-46h-60v85h60v-11h-50v-28H457z M407,86.688h40v27h-40V86.688z"/>
	<path fill="#8FC31F" d="M474,115.688v46h60v-85h-60v11h50v28H474z M524,151.688h-40v-27h40V151.688z"/>
	<polygon fill="#8FC31F" points="552,76.688 552,161.688 562,161.688 562,86.688 602,86.688 602,161.688 612,161.688 612,76.688 	
		"/>
</g>
</svg>
